15123
15064
14985
15112
15057
14879
14788
14781
14783
14966
15028
15084
15012
15134
15076
14873
14876
14973
15051
15020
14780
14798
14896
14911
14864
14935
14973
14834
15054
15047
14819
14804
14846
14876
15039
15068
15037
14930
14846
14823
14898
14964
14803
14955
15068
15119
15071
14897
14893
14878
14919
14982
14870
14896
14958
14874
15074
15160
15007
14914
15130
15105
15136
15133
15162
15194
15218
15029
15015
14911
14960
15046
15033
15111
15175
15234
14996
15017
15053
15251
15251
14994
14907
15068
15115
15000
15031
14962
14792
14767
14894
14794
14955
15173
15015
14953
15066
15062
14929
14936
14967
15013
14984
14928
14812
14936
15041
15036
14985
14979
14946
14936
14887
14985
14908
14906
14823
14757
15011
15325
15166
15034
15044
14938
15025
15060
15034
15119
15238
15139
14921
14912
14985
15088
15250
15166
15044
14993
14983
15047
15103
14970
15066
15245
15014
14974
15023
15079
14953
14930
15005
14971
15050
14870
14807
14866
14835
14963
14975
15000
14934
15096
15081
14963
14780
14863
15000
14898
15009
15127
14909
14908
15066
15006
14927
14996
15012
15170
15008
0
14929
15220
15105
14852
14908
15028
14994
14904
15034
14975
14967
14828
14832
15015
15094
15181
15277
15212
15169
15078
15080
0
-553869
14957
14850
15047
15165
15351
15168
15046
14972
15050
14891
14971
15063
14860
15024
15046
15019
15075
14968
14905
14951
14873
14819
14845
14956
14899
14945
14938
14828
14921
15123
15230
14991
15062
15141
15039
15114
15041
15158
15191
15067
14940
14941
14920
14888
15131
15218
15091
15032
14975
14912
15030
15005
14882
15021
15214
15234
15108
14967
14978
15037
15026
15109
15228
15242
15063
14991
15077
15076
15007
14974
14946
14763
14947
15248
15246
15120
14957
14866
14904
14994
14953
14762
14922
15045
15062
15035
15081
0
585429
15114
14951
14855
14789
14928
15167
15166
15033
15035
15036
14997
14989
14984
14921
14960
14978
14990
14980
14976
14983
14807
14882
14931
14881
14919
15007
15130
15050
14994
14924
14779
14794
14935
15029
15180
15189
14940
14946
14993
14947
14825
14963
15046
15001
15110
14980
15005
15189
15130
15096
14951
15209
15074
14991
15053
15170
15045
14972
14908
14898
14994
15102
15002
14991
15163
15084
14976
14946
14880
14806
14791
14921
14962
14979
14908
14967
15095
15122
15136
15022
15100
14977
15007
14905
14944
14944
14833
14851
15039
15094
14903
14916
15038
14946
14895
14927
14935
15113
15117
15136
15131
14976
14837
14956
14818
14997
14979
14828
14927
15141
15117
15006
14969
15011
15042
15053
14934
15092
14933
14932
15056
15087
14936
14833
14924
14963
14952
14973
15180
15026
14983
15099
15022
14855
14962
15008
14995
14895
