4925
4874
4961
5046
5025
4918
4886
4826
4943
5207
5208
5102
4954
4890
4887
4955
4918
4858
4959
4928
4968
4972
4964
4994
4982
0
67174
5065
5119
5020
5036
5050
4955
4893
4978
5071
5174
5150
5076
4997
5002
4989
4978
5014
4931
4960
4997
4988
4997
5080
5097
5100
5108
4959
4932
4974
5061
5016
5028
5079
5104
4993
5001
5069
5098
4957
5010
5025
4941
4978
5083
5177
5046
5009
5042
5047
5007
4940
4937
5062
5024
5014
5008
4905
4867
4890
4852
4989
5038
5052
5032
5040
4976
4949
5012
5010
4983
4993
4972
5005
5058
5025
5029
5077
5028
0
5087
5107
5018
4930
4875
4892
4960
4974
5092
5135
5054
4995
4996
5000
5014
5024
5096
5016
4908
4875
4882
5061
5186
5046
4909
4989
4932
4920
4998
5095
5012
5025
4950
4985
5017
5070
5147
5053
5053
5151
4987
4965
4955
4910
4948
4931
5020
4976
4974
5056
4840
4972
5114
5075
5013
5034
5005
5064
5146
5097
5025
5063
5060
4961
5053
4961
4961
4978
4911
4902
4910
0
278525
5011
4980
4958
4988
5006
4923
5068
5061
5163
5073
4965
5002
5068
5103
5082
5009
4944
4943
4920
5051
5044
4979
4946
4980
4974
4960
5032
4967
4956
5026
5062
5064
5121
5068
4954
5089
5094
4978
5029
4983
4995
5081
4984
4831
4888
5001
4905
4893
4930
5112
0
-45635
5053
5096
5100
4997
4936
4995
5018
4955
4986
4992
4998
5016
5084
5032
4958
5132
5204
5251
5156
4963
4928
5081
5073
5143
5034
5016
5034
5007
5076
5022
5055
5072
0
5053
4910
5094
5096
4998
5065
4971
4913
5117
5061
5008
5070
5063
5000
4961
4927
4937
4868
4862
4899
4887
4988
5020
4990
4898
4907
4928
5114
5163
4948
4847
4922
4901
4918
5016
5091
5140
5208
5104
5035
5136
5098
5072
4943
4905
4790
4867
5048
4963
4923
4978
5039
5073
5028
4999
4884
4873
4885
5045
5133
5090
5030
4954
4864
4984
5064
5006
5013
5119
5093
5129
5065
5087
5063
4965
5056
5071
4932
4899
4994
5040
5004
5036
4967
5000
5051
4989
5049
4866
4893
4941
4955
5061
4902
4995
5104
5051
5001
4990
4977
5077
5150
4985
4972
5015
4997
4944
4933
4956
5059
5048
5098
5070
4994
4884
4963
4993
4999
5128
5105
4895
4882
4997
5003
5005
4979
5000
4917
4935
4897
4897
5023
5061
5026
4937
5022
5002
4970
4983
5008
4992
5008
4952
5046
5028
5011
4970
5025
4914
4985
5007
5079
5048
4967
4977
5019
5033
4986
4969
4984
4989
4981
5011
4998
4911
4981
5034
5122
5029
5092
5024
5011
5006
4945
4941
5049
5056
5046
4995
4976
5003
5012
5030
5179
5130
4966
4846
4948
4952
4911
4957
4960
5009
5018
5020
5009
5024
5038
5009
5037
5054
5064
4991
4982
5013
5143
5128
