14933
14895
14850
14953
15037
14967
14980
15020
14976
14877
14943
14891
14976
15008
15070
15158
15000
14939
14919
15049
15095
14977
15039
15157
15078
15011
15004
14976
15024
15090
14946
14929
14918
14869
14993
15041
15093
15093
15054
15120
15072
14944
14808
14967
14942
14989
15060
15083
15116
15069
14936
14975
15019
15087
14950
14917
14948
15009
14873
14884
15014
14969
14980
14927
14996
14942
14963
14952
14942
14991
15008
14949
14883
14885
14893
14811
14850
15000
15003
15014
15053
14979
14988
15089
15020
15045
14999
14950
14985
15071
15049
15045
14944
15000
14979
14976
14886
14989
15045
15023
14912
14844
14967
15118
15106
15039
15030
15002
15004
14962
14961
14953
15013
15108
15064
15004
15031
14826
14882
14952
14928
15121
15074
14907
14949
15054
15026
15006
14982
15046
0
-4337
14913
14824
14971
15128
14903
14847
14982
15033
14948
14917
14869
14824
14929
14995
14964
14924
14860
14966
15045
15060
14891
14890
15131
14964
14939
15009
14900
15097
15103
14933
14930
14930
14925
14935
14958
14918
15008
15088
14969
14954
14850
14740
14926
14978
14987
14993
15065
15093
15078
15039
14911
14818
14831
14903
14952
14914
14907
14892
14944
14946
15016
15052
15041
14975
15021
14950
15084
15056
15097
15170
15022
14996
14985
15014
14904
14969
15045
15040
14965
14910
14939
14872
14945
14994
14935
15027
15054
14993
15067
15075
14869
14924
15060
15138
15108
14982
14965
14990
14901
15037
15223
15107
15116
14969
14919
14862
14860
14893
15071
15085
14975
14948
0
614618
15035
14981
15037
15015
14990
14920
14990
14985
15051
15059
14948
14955
14902
14799
14946
15073
15140
15018
14908
15009
15014
14984
15070
15036
14943
14971
15025
15008
14913
14985
15034
14852
14880
15023
15080
15086
15105
15088
15043
14960
14803
14830
14947
15010
15012
15031
15138
15153
15052
14986
14987
14814
14728
14794
14875
14919
14785
14735
14951
14969
14902
14924
14912
15020
15104
15040
14918
14995
14933
15008
14960
14915
14896
14954
14899
14971
14950
15007
15080
15006
15024
15087
15132
15104
15149
15080
14880
14828
14882
14995
14924
14912
15042
15052
15005
14865
14945
15061
15000
14950
15023
14955
14957
14909
14874
14937
14944
14890
14876
14908
14920
14992
14955
14928
14861
14832
14743
14963
15095
15039
14982
14980
14963
15132
15152
15039
14856
14834
14964
14907
14994
14988
14915
14970
15143
15168
14977
14981
15089
15052
15089
15188
15185
15116
15131
15040
14885
14951
14963
14803
14862
14859
14955
15131
15201
15082
15099
14940
14822
14943
14974
14933
14890
14896
15085
15077
15053
15034
15079
15127
14891
14953
14913
14912
14859
14870
14876
14851
14943
15013
15009
15131
15024
14946
14986
14980
14962
15022
15131
14997
15026
15018
14963
15084
15000
14903
14875
14893
14852
14919
14985
15023
14930
15015
15154
15045
14974
15017
15041
14966
14940
14967
14986
14966
14956
14926
14927
14942
14957
14897
14983
14949
14968
15073
15000
14902
14900
14913
15021
15106
14924
15012
15020
14879
14925
14953
14954
0
72809
5447
15028
15120
15086
14925
14860
14881
15053
15040
14970
14912
14982
15010
14967
15046
15015
14988
15008
14998
15104
15174
15112
15118
15101
14941
14984
15079
15075
15024
14940
15076
15120
15097
15104
14896
14908
15036
14818
14898
15126
15088
14997
15011
15056
15055
14933
14949
14892
14943
14974
14966
14968
14994
15053
15001
14945
14956
14969
