10067
10005
10032
10013
9993
9998
9989
10010
10015
9998
9990
9989
10021
10014
9989
9976
10041
10009
9972
10002
9987
10022
10022
9985
10008
9984
10034
10027
9988
9960
9961
10002
10057
10034
10005
9959
9952
9991
10030
10030
10041
10072
10009
9996
9926
9970
10039
10020
10041
10014
9997
9991
9982
9998
10020
9956
10012
10048
10011
10018
10023
9981
10052
10058
10016
10021
10017
10027
10022
10016
10017
10005
10013
10033
9995
9992
10014
10051
10071
10002
9989
10003
9982
9983
10019
10003
10001
10016
10009
9959
10027
10005
10016
10042
9985
9970
10018
10022
9998
9994
9995
10002
10036
10017
10048
9975
9979
9995
10028
10010
9993
10063
10033
10017
10047
10072
10054
10036
10013
10014
10000
10020
10019
10027
10058
10012
9999
9978
9996
9993
10007
10022
10001
10015
10043
10036
9999
10024
10015
10045
10021
0
9963
9954
10012
10049
10009
10020
10041
10025
9978
10012
9996
10007
10093
10035
9974
9947
9985
9999
9985
10007
10064
10071
10001
9989
10035
10010
9973
10001
10037
10028
10028
10001
10006
9999
9998
10012
10020
10013
10042
10002
9986
9977
9985
10008
10006
9969
10007
9996
10007
10034
10020
10002
9963
9981
10017
10082
10078
10017
10028
9985
10006
10042
10041
10048
9996
10038
10091
10027
10036
9975
9992
10012
10002
9994
9978
9976
9979
9959
9958
10001
9990
9942
9972
10029
10022
10030
10052
9999
10021
10030
10049
10012
9984
9971
9979
9985
9989
9993
9979
10005
9995
10001
10025
9995
10015
10024
0
10008
10034
10008
9969
10059
10052
10088
10086
9999
9978
10023
10010
10057
10083
10038
10025
10001
10000
9979
9959
9968
10006
9969
9959
9971
10027
10029
10004
10061
10064
9984
10022
10045
10012
9993
10011
10019
9980
10010
10026
9970
9953
9979
9988
10012
10028
10041
10008
10015
9995
10003
10005
10012
10024
10010
9976
9990
9977
10013
10019
9972
10013
10055
10052
10013
10015
10062
10053
9997
9963
9980
10046
10018
9991
9983
9975
9972
9988
10010
10044
10074
10055
9987
9965
10005
10022
10041
0
10034
10016
9975
9967
10010
10039
10046
10032
10028
10006
10001
10004
10041
10009
9961
10003
10034
10029
10036
10030
10046
10076
10018
10014
10027
9996
9963
9960
9995
10052
10038
9994
10015
10071
10059
10035
10047
10055
10058
10029
10040
10033
9999
10022
10070
10053
10010
10007
10032
10044
10002
9996
9977
9996
10069
10038
10044
10021
9999
10011
9994
9960
9978
9988
9976
9989
10015
10012
10021
10008
10002
10003
10022
9954
9929
9957
10025
10022
9979
9975
10007
10021
10012
9977
9980
9997
10019
10017
9988
10013
10023
9987
9984
9950
9945
10054
10083
10023
9973
9985
10024
10029
9963
9987
9999
9973
10015
10042
10057
0
-365874
10019
10049
10030
10009
9999
10012
9997
10031
10026
9994
10004
10017
10009
9993
9987
10005
10020
10013
10033
9984
9985
10002
10027
10032
10040
10023
10023
10026
10023
10028
9991
9972
9970
10034
10044
9998
9987
10055
10077
0
10022
10026
9981
9993
9953
9995
10017
10022
10035
10048
10043
9992
10000
10012
10020
10023
10020
9995
9991
10023
10026
9937
9943
9976
10047
10014
