5050
5009
5011
4990
4983
4987
4973
4973
4970
4970
4986
4998
4963
4991
4964
5017
4968
4933
4982
5052
5030
5034
5048
5083
5032
5022
5018
5047
5021
4991
5038
5017
4978
5010
4964
4982
4972
4997
5035
5012
4996
4945
4989
5039
5053
5017
5008
4981
4993
4962
4961
4952
4917
4958
4966
4989
4970
4931
4933
5017
5047
5035
4969
5031
5067
4981
4961
4949
4980
4975
4996
5043
5045
5014
4991
4990
5027
5051
5003
4982
5033
5051
5023
5017
5013
5004
4967
4963
4975
5039
5101
5063
4999
4952
4978
5016
4970
4938
4939
4930
4963
4971
4919
4901
4947
4956
4981
4959
4968
5041
4997
4964
4953
5017
5003
4997
5011
5023
5020
5000
5031
5017
4983
4931
4939
4949
4980
4954
4997
5065
4988
4926
4950
4925
4934
4926
4949
4974
4954
4947
4948
4951
4953
4958
5005
5023
4995
4955
4949
5005
4987
5020
5029
4952
5018
4977
4988
4998
4969
4932
4970
4930
4944
4969
4940
4987
4992
4936
4974
4966
4986
5024
5031
5025
5039
5027
4969
4982
4939
4937
4966
4947
4982
4998
4958
4922
4988
5009
5001
4956
4958
4956
4959
4980
5010
5007
5043
5058
5012
4983
4989
4983
5002
4995
4998
4955
4988
4969
4967
5018
4987
5000
5044
4985
4977
5006
4982
4978
4979
4967
5022
5018
4969
4950
5012
5017
4991
4995
4991
4967
4993
5013
4978
4943
4924
4959
4938
4957
4976
4991
4965
5028
5091
5010
4948
4933
4948
5007
5034
5013
5004
4982
4991
4982
4929
4977
5013
0
-238078
5012
5023
4985
4984
4978
5005
4984
4989
5007
4977
5014
5022
5034
4973
4962
5040
4988
4981
5044
5023
5069
5056
5008
4996
4976
5006
5016
4969
4906
4939
4988
0
4970
4990
4983
4929
4957
5000
4992
4973
4990
5003
4974
4983
4929
4935
4981
4975
4971
4978
4994
4994
4943
4961
4945
5039
5051
5002
4946
4924
4958
5031
5007
4916
4915
5008
4995
4949
4959
4965
5019
4989
4968
4967
4981
4975
4999
5073
5035
4988
4960
4961
5029
5008
4950
4991
5011
5016
4991
5009
5009
4969
4971
4992
4992
4999
4962
4963
4957
5004
4961
4938
4980
4984
4956
4987
5016
5014
5005
5016
4981
4944
4954
4966
4991
5000
4989
5008
4981
4995
5022
5002
4991
4985
4937
4932
5018
5000
4962
4967
4956
4984
4998
4971
4952
4940
4931
4969
5015
4951
4976
4924
4941
5000
5018
5023
5027
5044
4982
4959
4973
4961
4963
4968
4991
4979
5000
4994
4934
4957
4980
5018
5025
5047
5018
5002
4974
5040
5069
4990
4954
4983
4964
4973
4994
5007
4999
4960
4957
4977
4977
4994
4948
4969
5042
5037
4995
4945
4915
4885
4942
4999
4970
4917
4931
4924
4971
4990
4991
4976
4945
4946
4984
4921
4863
4924
4985
4989
4985
4949
4927
4943
4968
4926
4924
4990
4958
0
4932
4942
4994
4970
5023
5010
4966
4979
5024
4936
4931
4994
5001
4960
5005
4985
